trace.vcd
$version Generated by VerilatedVcd $end
$date Sat Feb  1 00:33:30 2014
 $end
$timescale 1ps $end

 $scope module TOP $end
  $var wire  1 { clk $end
  $var wire 64 x entry [63:0] $end
  $var wire 64 | req [63:0] $end
  $var wire  1 "& reqack $end
  $var wire  1 "$ reqcyc $end
  $var wire 13 ~ reqtag [12:0] $end
  $var wire  1 z reset $end
  $var wire 64 "! resp [63:0] $end
  $var wire  1 "' respack $end
  $var wire  1 "% respcyc $end
  $var wire 13 "# resptag [12:0] $end
  $scope module v $end
   $var wire  1 { clk $end
   $var wire 64 x entry [63:0] $end
   $var wire 64 % req [63:0] $end
   $var wire  1 "& reqack $end
   $var wire  1 ( reqcyc $end
   $var wire 13 ' reqtag [12:0] $end
   $var wire  1 z reset $end
   $var wire 64 "! resp [63:0] $end
   $var wire  1 "% respack $end
   $var wire  1 "% respcyc $end
   $var wire 13 "# resptag [12:0] $end
   $scope module core $end
    $var wire  4 $ bytes_decoded_this_cycle [3:0] $end
    $var wire  1 w can_decode $end
    $var wire 1024 , decode_buffer [0:1023] $end
    $var wire 120 s decode_bytes [0:119] $end
    $var wire 1144 O decode_bytes_repeated [0:1143] $end
    $var wire  7 N decode_offset [6:0] $end
    $var wire 32 # encoding [31:0] $end
    $var wire 64 x entry [63:0] $end
    $var wire  7 M fetch_offset [6:0] $end
    $var wire 64 * fetch_rip [63:0] $end
    $var wire  6 L fetch_skip [5:0] $end
    $var wire 32 ) fetch_state [31:0] $end
    $var wire  1 "( send_fetch_req $end
   $upscope $end
   $scope module dummy $end
    $var wire 64 % req [63:0] $end
    $var wire  1 "& reqack $end
    $var wire  1 ( reqcyc $end
    $var wire 13 ' reqtag [12:0] $end
    $var wire 64 "! resp [63:0] $end
    $var wire  1 "% respack $end
    $var wire  1 "% respcyc $end
    $var wire 13 "# resptag [12:0] $end
   $upscope $end
   $scope module uncore_bus $end
    $var wire  1 { clk $end
    $var wire 64 % req [63:0] $end
    $var wire  1 "& reqack $end
    $var wire  1 ( reqcyc $end
    $var wire 13 ' reqtag [12:0] $end
    $var wire  1 z reset $end
    $var wire 64 "! resp [63:0] $end
    $var wire  1 "% respack $end
    $var wire  1 "% respcyc $end
    $var wire 13 "# resptag [12:0] $end
   $upscope $end
  $upscope $end
 $upscope $end
$enddefinitions $end


#0
b00000000000000000000000000000000 #
b0000 $
b00000000000000000000000000000000 )
b0000000000000000000000000000000000000000010000000000000011000000 *
b0000000000000000000000000000000000000000000000000000000000000000000000000000000000000000000000000000000000000000000000000000000000000000000000000000000000000000000000000000000000000000000000000000000000000000000000000000000000000000000000000000000000000000000000000000000000000000000000000000000000000000000000000000000000000000000000000000000000000000000000000000000000000000000000000000000000000000000000000000000000000000000000000000000000000000000000000000000000000000000000000000000000000000000000000000000000000000000000000000000000000000000000000000000000000000000000000000000000000000000000000000000000000000000000000000000000000000000000000000000000000000000000000000000000000000000000000000000000000000000000000000000000000000000000000000000000000000000000000000000000000000000000000000000000000000000000000000000000000000000000000000000000000000000000000000000000000000000000000000000000000000000000000000000000000000000000000000000000000000000000000000000000000000000000000000000000000000000000000000000000000000 ,
b101000 L
b0000000 M
b0000000 N
b0000000000000000000000000000000000000000000000000000000000000000000000000000000000000000000000000000000000000000000000000000000000000000000000000000000000000000000000000000000000000000000000000000000000000000000000000000000000000000000000000000000000000000000000000000000000000000000000000000000000000000000000000000000000000000000000000000000000000000000000000000000000000000000000000000000000000000000000000000000000000000000000000000000000000000000000000000000000000000000000000000000000000000000000000000000000000000000000000000000000000000000000000000000000000000000000000000000000000000000000000000000000000000000000000000000000000000000000000000000000000000000000000000000000000000000000000000000000000000000000000000000000000000000000000000000000000000000000000000000000000000000000000000000000000000000000000000000000000000000000000000000000000000000000000000000000000000000000000000000000000000000000000000000000000000000000000000000000000000000000000000000000000000000000000000000000000000000000000000000000000000000000000000000000000000000000000000000000000000000000000000000000000000000000000000000000000000000000000000000000000000 O
b000000000000000000000000000000000000000000000000000000000000000000000000000000000000000000000000000000000000000000000000 s
0w
b0000000000000000000000000000000000000000000000000000000000000000 %
b0000000000000 '
0(
b0000000000000000000000000000000000000000000000000000000000000000 |
b0000000000000 ~
0"$
0"'
b0000000000000000000000000000000000000000010000000000000011101000 x
1"(
1z
1{
b1010101010101010101010101010101010101010101010101010101010101010 "!
b0101010101010 "#
0"&
0"%
#250
0{
#500
1{
#750
0z
0{
#1000
b0000000000000000000000000000000000000000010000000000000011000000 %
b1000100000000 '
1(
b0000000000000000000000000000000000000000010000000000000011000000 |
b1000100000000 ~
1"$
1{
#1250
0"(
0{
1"&
#1500
b00000000000000000000000000000001 )
0(
0"$
1{
#1750
0{
#2000
1{
0"&
#2250
0{
#2500
1{
#2750
0{
#3000
1{
#3250
0{
#3500
1{
#3750
0{
#4000
1{
#4250
0{
#4500
1{
#4750
0{
#5000
1{
#5250
0{
#5500
1{
#5750
0{
#6000
1{
#6250
0{
#6500
1{
#6750
0{
#7000
1{
#7250
0{
#7500
1{
#7750
0{
#8000
1{
#8250
0{
#8500
1{
#8750
0{
#9000
1{
#9250
0{
#9500
1{
#9750
0{
#10000
1{
#10250
0{
#10500
1{
#10750
0{
#11000
1{
#11250
0{
#11500
1{
#11750
0{
#12000
1{
#12250
0{
#12500
1{
#12750
0{
#13000
1{
#13250
0{
#13500
1{
#13750
0{
#14000
1{
#14250
0{
#14500
1{
#14750
0{
#15000
1{
#15250
0{
#15500
1{
#15750
0{
#16000
1{
#16250
0{
#16500
1{
#16750
0{
#17000
1{
#17250
0{
#17500
1{
#17750
0{
#18000
1{
#18250
0{
#18500
1{
#18750
0{
#19000
1{
#19250
0{
#19500
1{
#19750
0{
#20000
1{
#20250
0{
#20500
1{
#20750
0{
#21000
1{
#21250
0{
#21500
1{
#21750
0{
#22000
1{
#22250
0{
#22500
1{
#22750
0{
#23000
1{
#23250
0{
#23500
1{
#23750
0{
#24000
1{
#24250
0{
#24500
1{
#24750
0{
#25000
1{
#25250
0{
#25500
1{
#25750
0{
#26000
1{
#26250
0{
#26500
1{
#26750
0{
#27000
1{
#27250
0{
#27500
1{
#27750
0{
#28000
1{
#28250
0{
#28500
1{
#28750
0{
#29000
1{
#29250
0{
#29500
1{
#29750
0{
#30000
1{
#30250
0{
#30500
1{
#30750
0{
#31000
1{
#31250
0{
#31500
1{
#31750
0{
#32000
1{
#32250
0{
#32500
1{
#32750
0{
#33000
1{
#33250
0{
#33500
1{
#33750
0{
#34000
1{
#34250
0{
#34500
1{
#34750
0{
#35000
1{
#35250
0{
#35500
1{
#35750
0{
#36000
1{
#36250
0{
#36500
1{
#36750
0{
#37000
1{
#37250
0{
#37500
1{
#37750
0{
#38000
1{
#38250
0{
#38500
1{
#38750
0{
#39000
1{
#39250
0{
#39500
1{
#39750
0{
#40000
1{
#40250
0{
#40500
1{
#40750
0{
#41000
1{
#41250
0{
#41500
1{
#41750
0{
#42000
1{
#42250
0{
#42500
1{
#42750
0{
#43000
1{
#43250
0{
#43500
1{
#43750
0{
#44000
1{
#44250
0{
#44500
1{
#44750
0{
#45000
1{
#45250
0{
#45500
1{
#45750
0{
#46000
1{
#46250
0{
#46500
1{
#46750
0{
#47000
1{
#47250
0{
#47500
1{
#47750
0{
#48000
b00000000000000000000000000000010 )
b0000000000000000000000000000000000000000010000000000000011001000 *
b100000 L
1"'
1{
b0000000000000000000000000000000000000000000000000000000000000000 "!
b0000000000000 "#
1"%
#48250
0{
#48500
b0000000000000000000000000000000000000000010000000000000011010000 *
b011000 L
1{
#48750
0{
#49000
b0000000000000000000000000000000000000000010000000000000011011000 *
b010000 L
1{
#49250
0{
#49500
b0000000000000000000000000000000000000000010000000000000011100000 *
b001000 L
1{
#49750
0{
#50000
b0000000000000000000000000000000000000000010000000000000011101000 *
b000000 L
1{
b0000100000000000000000000000000000000000000000000000000000000000 "!
#50250
0{
#50500
b0000000000000000000000000000000000000000010000000000000011110000 *
b0100100000110001111011010100100110001001110100010101111001001000000000000000000000000000000000000000000000000000000000000000000000000000000000000000000000000000000000000000000000000000000000000000000000000000000000000000000000000000000000000000000000000000000000000000000000000000000000000000000000000000000000000000000000000000000000000000000000000000000000000000000000000000000000000000000000000000000000000000000000000000000000000000000000000000000000000000000000000000000000000000000000000000000000000000000000000000000000000000000000000000000000000000000000000000000000000000000000000000000000000000000000000000000000000000000000000000000000000000000000000000000000000000000000000000000000000000000000000000000000000000000000000000000000000000000000000000000000000000000000000000000000000000000000000000000000000000000000000000000000000000000000000000000000000000000000000000000000000000000000000000000000000000000000000000000000000000000000000000000000000000000000000000000000000000000000000000000000000000000000000000 ,
b0001000 M
b0100100000110001111011010100100110001001110100010101111001001000000000000000000000000000000000000000000000000000000000000000000000000000000000000000000000000000000000000000000000000000000000000000000000000000000000000000000000000000000000000000000000000000000000000000000000000000000000000000000000000000000000000000000000000000000000000000000000000000000000000000000000000000000000000000000000000000000000000000000000000000000000000000000000000000000000000000000000000000000000000000000000000000000000000000000000000000000000000000000000000000000000000000000000000000000000000000000000000000000000000000000000000000000000000000000000000000000000000000000000000000000000000000000000000000000000000000000000000000000000000000000000000000000000000000000000000000000000000000000000000000000000000000000000000000000000000000000000000000000000000000000000000000000000000000000000000000000000000000000000000000000000000000000000000000000000000000000000000000000000000000000000000000000000000000000000000000000000000000000000000000010010000011000111101101010010011000100111010001010111100100100000000000000000000000000000000000000000000000000000000000 O
b010010000011000111101101010010011000100111010001010111100100100000000000000000000000000000000000000000000000000000000000 s
1{
b0100100000110001111011010100100110001001110100010101111001001000 "!
#50750
0{
#51000
b0000000000000000000000000000000000000000010000000000000011111000 *
b0100100000110001111011010100100110001001110100010101111001001000100010011110001001001000100000111110010011110000010010001100011100000000000000000000000000000000000000000000000000000000000000000000000000000000000000000000000000000000000000000000000000000000000000000000000000000000000000000000000000000000000000000000000000000000000000000000000000000000000000000000000000000000000000000000000000000000000000000000000000000000000000000000000000000000000000000000000000000000000000000000000000000000000000000000000000000000000000000000000000000000000000000000000000000000000000000000000000000000000000000000000000000000000000000000000000000000000000000000000000000000000000000000000000000000000000000000000000000000000000000000000000000000000000000000000000000000000000000000000000000000000000000000000000000000000000000000000000000000000000000000000000000000000000000000000000000000000000000000000000000000000000000000000000000000000000000000000000000000000000000000000000000000000000000000000000000000000000000000000000000000 ,
b0010000 M
b0100100000110001111011010100100110001001110100010101111001001000100010011110001001001000100000111110010011110000010010001100011100000000000000000000000000000000000000000000000000000000000000000000000000000000000000000000000000000000000000000000000000000000000000000000000000000000000000000000000000000000000000000000000000000000000000000000000000000000000000000000000000000000000000000000000000000000000000000000000000000000000000000000000000000000000000000000000000000000000000000000000000000000000000000000000000000000000000000000000000000000000000000000000000000000000000000000000000000000000000000000000000000000000000000000000000000000000000000000000000000000000000000000000000000000000000000000000000000000000000000000000000000000000000000000000000000000000000000000000000000000000000000000000000000000000000000000000000000000000000000000000000000000000000000000000000000000000000000000000000000000000000000000000000000000000000000000000000000000000000000000000000000000000000000000000000000000000000000000000000000000010010000011000111101101010010011000100111010001010111100100100010001001111000100100100010000011111001001111000001001000 O
b010010000011000111101101010010011000100111010001010111100100100010001001111000100100100010000011111001001111000001001000 s
1w
1{
b1000100111100010010010001000001111100100111100000100100011000111 "!
#51250
0{
#51500
b0000000000000000000000000000000000000000010000000000000100000000 *
b0100100000110001111011010100100110001001110100010101111001001000100010011110001001001000100000111110010011110000010010001100011111000111001111000000100001000000000000001110100011101010000000110000000000000000000000000000000000000000000000000000000000000000000000000000000000000000000000000000000000000000000000000000000000000000000000000000000000000000000000000000000000000000000000000000000000000000000000000000000000000000000000000000000000000000000000000000000000000000000000000000000000000000000000000000000000000000000000000000000000000000000000000000000000000000000000000000000000000000000000000000000000000000000000000000000000000000000000000000000000000000000000000000000000000000000000000000000000000000000000000000000000000000000000000000000000000000000000000000000000000000000000000000000000000000000000000000000000000000000000000000000000000000000000000000000000000000000000000000000000000000000000000000000000000000000000000000000000000000000000000000000000000000000000000000000000000000000000000000000000000000 ,
b0011000 M
b0100100000110001111011010100100110001001110100010101111001001000100010011110001001001000100000111110010011110000010010001100011111000111001111000000100001000000000000001110100011101010000000110000000000000000000000000000000000000000000000000000000000000000000000000000000000000000000000000000000000000000000000000000000000000000000000000000000000000000000000000000000000000000000000000000000000000000000000000000000000000000000000000000000000000000000000000000000000000000000000000000000000000000000000000000000000000000000000000000000000000000000000000000000000000000000000000000000000000000000000000000000000000000000000000000000000000000000000000000000000000000000000000000000000000000000000000000000000000000000000000000000000000000000000000000000000000000000000000000000000000000000000000000000000000000000000000000000000000000000000000000000000000000000000000000000000000000000000000000000000000000000000000000000000000000000000000000000000000000000000000000000000000000000000000000000000000000000000000000000000000000010010000011000111101101010010011000100111010001010111100100100010001001111000100100100010000011111001001111000001001000 O
1{
b1100011100111100000010000100000000000000111010001110101000000011 "!
#51750
0{
#52000
b00000000000000000000000000000000 )
b0000000000000000000000000000000000000000010000000000000100000000 %
b0000000000000000000000000000000000000000010000000000000100000000 |
0"'
1"(
1{
b1010101010101010101010101010101010101010101010101010101010101010 "!
b0101010101010 "#
0"%
#52250
0{
#52500
1(
1"$
1{
#52750
0"(
0{
1"&
#53000
b00000000000000000000000000000001 )
0(
0"$
1{
#53250
0{
#53500
1{
0"&
